+Request
https://maps.googleapis.com/maps/api/timezone/json?location=39.6034810,-119.6822510&timestamp=1331161200&sensor=true

+Response
+Body
{
   "dstOffset" : 0,
   "rawOffset" : -28800,
   "status" : "OK",
   "timeZoneId" : "America/Los_Angeles",
   "timeZoneName" : "Pacific Standard Time"
}
